Project 1
…
view(history)

In this data set, it record tour de France records from 1903 to 2017, records like the how many stages was in the the game year, how long take the winner to win the game at the year, pace(formula for pace: min/km) of the winner, and winners name, age, and nationality. There is 104 rows in the data set.

some intresting data

history_bywinner <- group_by(history, Winner)
summarize(history_bywinner,
          HowManyTimes = n())%>%
  arrange(desc(HowManyTimes))

## `summarise()` ungrouping output (override with `.groups` argument)

## # A tibble: 61 x 2
##    Winner       HowManyTimes
##    <chr>               <int>
##  1 L. Armstrong            7
##  2 B. Hinault              5
##  3 E. Merckx               5
##  4 J. Anquetil             5
##  5 M. Indurain             5
##  6 C. Froome               4
##  7 G. LeMond               3
##  8 L. Bobet                3
##  9 P. Thys                 3
## 10 A. Contador             2
## #  with 51 more rows
…
